{
  "page": 1,
  "total_results": 164,
  "total_pages": 9,
  "data": [
    {
      "_id": "5d5588fda7807caf88405456",
      "url": "https://truyen.tangthuvien.vn/doc-truyen/bach-luyen-thanh-tien",
      "description": " Nếu bạn nào đã từng yêu thích Phàm nhân tu tiên truyện thì truyện này là 1 phàm nhân tu tiên truyện thứ 2, nhân vật chính ko có linh căn, ko thể thuận lợi tu tiên, phải dùng đan dược để tu luyện. Vậy như thế nào để có được đan dược để tu luyện trong 1 thế giới khắc nghiệt, nhân vật chính là 1 đệ tử đê cấp của 1 môn phái tu chân thuộc hàng tam lưu, ko có linh căn ko thể tu luyện, nếu như hàn lập trong Phàm nhân tu tiên truyện có được chiếc bình thần kỳ có thể ươm trồng thảo dược thì nhân vật chính ở đây cũng có 1 khả năng đặc biệt. Nào chúng ta cùng theo chân của nhân vật chính để theo dõi bước đường trở thành 1 cự đầu như thế nào nhé!!\n\r\n\n\r\nTheo mình đánh giá thì truyện này hay ko kém Phàm nhân tu tiên và Tạp đồ.\n\r\nmình chỉ giới thiệu link, tại mình ko rành convert nên để bạn nào rành thì giúp hộ vậy.",
      "img": "https://www.nae.vn/ttv/ttv/public/images/story/42501869fcf17a1cca75420b325d870c75f56175f0b31e57efedd66a376c963b.jpg",
      "title": "Bách Luyện Thành Tiên  - 百炼成仙",
      "author": "Huyễn Vũ",
      "genre": "Đã hoàn thành",
      "source": "Danh sách chương (4980 chương)",
      "status": "Tiên Hiệp",
      "story_id": "2177"
    },
    {
      "_id": "5d558900a7807caf88405457",
      "url": "https://truyen.tangthuvien.vn/doc-truyen/mang-hoang-ky",
      "description": " Đầy hứa hẹn sinh tồn, cùng thiên đấu, cùng địa đấu, cùng yêu đấu bộ lạc mọi người.\n\r\n\n\r\nĐầy hứa hẹn tiêu dao Trường Sinh, lịch tam tai chín kiếp, có chết Vô Hối tu tiên giả.\n\r\n\n\r\nCàng có Khoa Phụ từng ngày. . .\n\r\n\n\r\nCàng có Hậu Nghệ bắn Kim Ô. . .\n\r\n\n\r\n. . .\n\r\n\n\r\nMà một ngày, Kỷ mỗ người đang một cái cường đại bộ tộc 'Kỷ thị' sinh ra . . .",
      "img": "https://www.nae.vn/ttv/ttv/public/images/story/7055d53e2d25f5d43aefc42d762e5d33cd937628f0c97f96facebaca1cfa76c8.jpg",
      "title": "Mãng Hoang Kỷ  -  莽荒纪",
      "author": "Ngã Cật Tây Hồng Thị",
      "genre": "Đã hoàn thành",
      "source": "Danh sách chương (1452 chương)",
      "status": "Tiên Hiệp",
      "story_id": "2176"
    },
    {
      "_id": "5d558901a7807caf88405458",
      "url": "https://truyen.tangthuvien.vn/doc-truyen/ma-thien-ky",
      "description": " Một tên ở vô số hung đồ bên trong lớn lên mệnh yểu thiếu niên, một người cùng ma cùng tồn tại thời đại, một cái có thể sai khiến ác quỷ, yêu linh Đại Thiên Thế Giới...",
      "img": "https://www.nae.vn/ttv/ttv/public/images/story/2232.jpg",
      "title": "Ma Thiên Ký  - 魔天记",
      "author": "Vong Ngữ",
      "genre": "Đã hoàn thành",
      "source": "Danh sách chương (1554 chương)",
      "status": "Tiên Hiệp",
      "story_id": "2232"
    },
    {
      "_id": "5d558902a7807caf88405459",
      "url": "https://truyen.tangthuvien.vn/doc-truyen/thon-phe-tinh-khong",
      "description": " Trong tinh không.\n\r\n\n\r\n\t\"Viên tinh cầu này, toàn thân màu vàng đất, không có bất kỳ sinh mệnh tồn tại, đường kính 21000 cây số, ồ, dĩ nhiên ẩn chứa 'Tinh lệ kim' mỏ quặng, thực sự là trời cũng giúp ta, đem viên tinh cầu này cắn nuốt mất sau, thực lực của ta lẽ ra có thể khôi phục lại bị thương trước 80%.\" Sắc mặt tái nhợt La Phong khoanh chân ngồi ở một hạt phi hành thiên thạch thượng, liếc nhìn phương xa một hạt không có sự sống tồn tại hành tinh.\n\r\n\n\r\n\t......\n\r\n\n\r\n\tCà chua thứ sáu bộ tiểu thuyết 《 thôn phệ tinh không 》, sẽ vì đại gia thể hiện ra một cái mênh mông rộng lớn, thần bí khó lường tương lai thế giới.",
      "img": "https://www.nae.vn/ttv/ttv/public/images/story/85f227832d742e59784751703d5ea5632ff42528551e4f822b8b18e799c67323.jpg",
      "title": "Thôn Phệ Tinh Không  - 吞噬星空",
      "author": "Ngã Cật Tây Hồng Thị",
      "genre": "Đang ra",
      "source": "Danh sách chương (0 chương)",
      "status": "Khoa Huyễn",
      "story_id": "3854"
    },
    {
      "_id": "5d558902a7807caf8840545a",
      "url": "https://truyen.tangthuvien.vn/doc-truyen/dai-chu-te",
      "description": " Đại thế giới, vị diện giao hội, vạn tộc mọc lên san sát như rừng, quần hùng tập trung, một vị từ tương lai Hạ vị diện đích Thiên chi Chí tôn, tại đây Vô Tận Thế Giới, diễn lại làm cho người hướng tới Truyền Kỳ, truy cầu lấy cái kia chúa tể chi lộ.\n\r\n\n\r\nVô tận hỏa vực, Viêm Đế chấp chưởng, Vạn Hỏa đốt Thương Khung.\n\r\n\n\r\nVõ Cảnh ở trong, Vũ tổ chi uy, chấn nhiếp Càn Khôn.\n\r\n\n\r\nTây Thiên chi điện, bách chiến chi hoàng, chiến uy không thể địch.\n\r\n\n\r\nBắc Hoang chi khâu, Vạn Mộ chi địa, Bất Tử chi chủ trấn Thiên địa.\n\r\n....",
      "img": "https://www.nae.vn/ttv/ttv/public/images/story/6b0702cbd2ee8eb77d788e9c42c28038393d3c37597f38f95b67f0b31588061e.jpg",
      "title": "Đại Chúa Tể  - 大主宰",
      "author": "Thiên Tằm Thổ Đậu",
      "genre": "Đã hoàn thành",
      "source": "Danh sách chương (1570 chương)",
      "status": "Huyền Huyễn",
      "story_id": "241"
    },
    {
      "_id": "5d558904a7807caf8840545b",
      "url": "https://truyen.tangthuvien.vn/doc-truyen/sat-than",
      "description": " Chắc các bạn đã không còn xa lạ với cái tên Nghịch Thương Thiên tác giả của truyện Đại Ma Vương vừa mới được TTV dịch trọn bộ vừa qua...\n\r\nSau một tác phẩm kiểu phương đông huyền huyễn như Thập Phương Thiên Sĩ, lão Nghịch lại quay lại với Dị Giới Đại Lục...\n\r\n\n\r\nGiờ thì xơi thôi anh em... Tác giả xin nghỉ 2 tháng lấy tư liệu và nghỉ ngơi, mới bước vào viết truyện lúc 21-3-2011. Ngày tầm 2 chương\n\r\n_________________________\n\r\nMột gã cực hạn vận động cuồng nhân, xuyên việt đến một cái đại thế gia đích tiểu thiếu gia trên người, đã lấy được một loại cần hắn thông qua không ngừng giết chóc, tài năng nhanh hơn tăng lên lực lượng, tăng cường tu vị đích thần bí Vũ Hồn...\n\r\n\n\r\nThần bí Vũ Hồn chẳng những làm hắn thoát thai hoán cốt, còn lại để cho trong thân thể của hắn ẩn núp nhiều năm đích mặt khác hai chủng Vũ Hồn, cũng đều nhất nhất thức tỉnh!\n\r\n\n\r\nCũng không tu luyện võ đạo đích thiếu niên, một đêm gian : ở giữa đã thành người mang ba loại Vũ Hồn, thiên phú biến thái tới cực điểm đích tu luyện cuồng nhân, dùng hỏa tiễn giống như đích tốc độ tu luyện cuồng đột tiến mạnh, từng bước một bước lên trở thành thần Vương chi Vương đích con đường cường giả!\n\r\n\n\r\nTại cái thế giới nơi mà người ăn thịt người điên cuồng như thế này, các thần linh đã mất đi lực để xoay chuyển trời đất, vậy hãy để cho ta đạp trên đống xương trắng chất đống đầy trời này, để đến phổ độ chúng sinh ở nơi đây.\n\r\n...",
      "img": "https://www.nae.vn/ttv/ttv/public/images/story/f1137855a833aad24037bb445f69cd5db305c52b4fb89de4e29756a9d875ee67.jpg",
      "title": "Sát Thần  - 杀神",
      "author": "Nghịch Thương Thiên",
      "genre": "Đã hoàn thành",
      "source": "Danh sách chương (1616 chương)",
      "status": "Huyền Huyễn",
      "story_id": "2806"
    },
    {
      "_id": "5d558905a7807caf8840545c",
      "url": "https://truyen.tangthuvien.vn/doc-truyen/vu-dong-can-khon",
      "description": " Con đường tu luyện, chính là trộm đi âm dương, đoạt lấy tạo hóa, chuyển đổi Niết Bàn, nắm giữ sinh tử, chưởng quản Luân Hồi.\n\r\n\n\r\nVõ Chi Cực, phá trời xanh, động Càn Khôn!\n\r\n\n\r\nSách mới cầu cất chứa, cầu đề cử, tạ mọi người O(∩_∩)O~",
      "img": "https://www.nae.vn/ttv/ttv/public/images/story/58c7a1fd6c04ae91c7786eec507b4900320efa2a22137e1b83d76efa8dc4f724.jpg",
      "title": "Vũ Động Càn Khôn  - 武动乾坤",
      "author": "Thiên Tằm Thổ Đậu",
      "genre": "Đã hoàn thành",
      "source": "Danh sách chương (1314 chương)",
      "status": "Huyền Huyễn",
      "story_id": "2780"
    },
    {
      "_id": "5d558906a7807caf8840545d",
      "url": "https://truyen.tangthuvien.vn/doc-truyen/vu-cuc-thien-ha",
      "description": " Thiên tư trung thượng thiếu niên bình thường, lập chí tiến vào Võ Phủ Thánh Địa, truy cầu cực hạn võ học.\n\r\n\n\r\nNhưng mà đối mặt cạnh tranh kịch liệt khảo hạch, lại có thế gia đệ tử dựa thế áp người, nho nhỏ bình thường thiếu niên như thế nào dừng chân?\n\r\n\n\r\nTông môn truyền thừa nghiêm khắc giữ bí mật, hạch tâm Công Pháp khái không truyền ra ngoài, tại Công Pháp truyền thừa như thế khó được Thiên Diễn Đại Lục, mặc dù tiến vào Võ Phủ cùng tông môn, muốn học đến đỉnh cấp võ học lại nói dễ vậy sao?\n\r\n\n\r\nĐến từ Thần Vực nho nhỏ ma phương, triển khai một cường giả thế giới.\n\r\n\n\r\nCông Pháp muốn học đi học nhất đỉnh tiêm.\n\r\n\n\r\nSinh hoạt chức nghiệp muốn chọn tựu tuyển người khác đều không biết đích.\n\r\n\n\r\nNhiệt huyết quyết đấu, thiên tài cạnh tranh, ba thước thương mang, ngàn dặm thẳng khu, võ đạo cực hạn, độc bộ thiên hạ!",
      "img": "https://www.nae.vn/ttv/ttv/public/images/story/2260.jpg",
      "title": "Vũ Cực Thiên Hạ  - 武极天下",
      "author": "Tàm Kiểm Lý Đích Ngưu",
      "genre": "Đã hoàn thành",
      "source": "Danh sách chương (2267 chương)",
      "status": "Huyền Huyễn",
      "story_id": "2260"
    },
    {
      "_id": "5d558908a7807caf8840545e",
      "url": "https://truyen.tangthuvien.vn/doc-truyen/kiem-dao-doc-ton",
      "description": " Chân Linh đại lục, tông môn ngàn vạn, cường giả như rừng.\n\r\n\n\r\nMột đại gia tộc đệ tử bởi vì kỳ dị đích biến cố theo tài trí bình thường biến thành thiên tài, chẳng những có thể đã gặp qua là không quên được, cảm giác nhạy cảm, lực lĩnh ngộ càng là thẳng lên vân tiêu, trở thành yêu đồng dạng đích tồn tại.\n\r\n\n\r\nNhiệt huyết kịch liệt đích quyết đấu, đỉnh cấp thiên tài đích va chạm, võ học không hề cực hạn tại thế gian, đồng dạng có thể phiên giang đảo hải, lên trời xuống đất.\n\r\n\n\r\nHết thảy đều tại Kiếm Đạo Độc Tôn!",
      "img": "https://www.nae.vn/ttv/ttv/public/images/story/2667.jpg",
      "title": "Kiếm Đạo Độc Tôn  - 剑道独尊",
      "author": "Kiếm Du Thái Hư",
      "genre": "Đã hoàn thành",
      "source": "Danh sách chương (1479 chương)",
      "status": "Huyền Huyễn",
      "story_id": "2667"
    },
    {
      "_id": "5d558909a7807caf8840545f",
      "url": "https://truyen.tangthuvien.vn/doc-truyen/hoan-my-the-gioi",
      "description": " Một hạt bụi có thể lấp biển , một cọng cỏ chém hết mặt trời mặt trăng và ngôi sao , trong nháy mắt ở giữa long trời lỡ đất.\n\r\n\n\r\nQuần hùng cùng nổi lên , vạn tộc mọc lên san sát như rừng , chư thánh tranh bá , loạn khắp đất trời. Hỏi mặt đất bao la , cuộc đời thăng trầm? !\n\r\n\n\r\nMột thiếu niên theo trong đất hoang đi ra , tất cả bắt đầu từ nơi này. . .",
      "img": "https://www.nae.vn/ttv/ttv/public/images/story/53b68f5cd8131faedc57e2bffa5b9b37fbde7cb6f2c0f5f20a1e15018059dc5a.jpg",
      "title": "Hoàn Mỹ Thế Giới  - 完美世界",
      "author": "Thần Đông",
      "genre": "Đã hoàn thành",
      "source": "Danh sách chương (2014 chương)",
      "status": "Huyền Huyễn",
      "story_id": "110"
    },
    {
      "_id": "5d558c4990fbc320291c5feb",
      "url": "https://truyen.tangthuvien.vn/doc-truyen/thien-dao-do-thu-quan-convert",
      "description": " Trương Huyền xuyên việt qua dị giới, thành một tên quang vinh giáo sư, trong đầu nhiều hơn một cái thần bí thư viện.\n\r\n\n\r\nChỉ cần hắn xem qua đồ vật, bất luận người vẫn là vật, đều có thể tự động hình thành thư tịch, ghi chép xuống đối phương đủ loại khuyết điểm, liền, hắn trâu lớn hơn!\n\r\n\n\r\n\"Hạo Thiên Đại Đế, ngươi làm sao không thích mặc quần lót a? Đường đường Đại Đế, có thể hay không chú ý một chút hình tượng?\"\n\r\n\n\r\n\"Linh Lung tiên tử, nếu như ngươi buổi tối lại mất ngủ, có thể tìm ta mà, con người của ta hát yên giấc khúc rất có một bộ!\"\n\r\n\n\r\n\"Còn có ngươi, Càn Khôn Ma Quân, có thể hay không ăn ít một chút hành tây, muốn đem lão tử hun chết sao?\"\n\r\n\n\r\n. . .\n\r\n\n\r\nĐây là một sư đạo truyền thừa, bồi dưỡng, chỉ điểm thế giới người mạnh nhất trâu bò phong cách cố sự.",
      "img": "https://www.nae.vn/ttv/ttv/public/images/story/3881acad529e6fdb4429048639ce7432f69b177030e849a2bb7bea64ed5fc54e.jpg",
      "title": "Thiên Đạo Đồ Thư Quán  - 天道图书馆",
      "author": "Hoành Tảo Thiên Nhai",
      "genre": "Đang ra",
      "source": "Danh sách chương (2203 chương)",
      "status": "Huyền Huyễn",
      "story_id": "14540"
    },
    {
      "_id": "5d558c4a90fbc320291c5fec",
      "url": "https://truyen.tangthuvien.vn/doc-truyen/tuyet-the-duong-mon",
      "description": " Cái này không có ma pháp, không có đấu khí, không có võ thuật, đã có Võ Hồn. Đường Môn sáng lập vạn năm sau Đấu La Đại Lục trên, Đường Môn sự suy thoái. Một đời thiên kiêu ngang trời xuất thế, mới một đời Sử Lai Khắc Thất Quái có thể không trọng chấn Đường Môn, soạn nhạc một khúc tuyệt thế Đường Môn chi ca?\n\r\n\n\r\nTrăm vạn năm hồn thú, tay cầm nhật nguyệt trích tinh thần tử linh thánh pháp thần, làm cho Đường Môn suy sụp hoàn toàn mới hồn đạo khí hệ thống. Hết thảy thần kỳ đều muốn từng cái bày ra.\n\r\n\n\r\nĐường Môn ám khí có thể không trọng chấn hùng phong, Đường Môn có thể không tái hiện huy hoàng, hết thảy đều ở tuyệt thế Đường Môn!\n\r\n\n\r\n【 Đấu La Đại Lục II, ta nghĩ, có mấy chữ này như vậy đủ rồi a. Trở về a, Đường Môn huynh đệ tỷ muội 】",
      "img": "https://www.nae.vn/ttv/ttv/public/images/story/689ee4d41cb5e8859d6ca24f8aec7398dd2ffc4186f48aea0f71db33bfca2317.jpg",
      "title": "Tuyệt Thế Đường Môn  - 绝世唐门",
      "author": "Đường Gia Tam Thiếu",
      "genre": "Đã hoàn thành",
      "source": "Danh sách chương (1658 chương)",
      "status": "Huyền Huyễn",
      "story_id": "2226"
    },
    {
      "_id": "5d558c4c90fbc320291c5fed",
      "url": "https://truyen.tangthuvien.vn/doc-truyen/dichdau-pha-thuong-khung-suu-tam",
      "description": " Nơi này thị thuộc về đấu khí đích thế giới, không có hoa tiếu diễm lệ đích ma pháp, hữu đích, gần thị phồn diễn đáo đỉnh đích đấu khí!Tưởng phải biết rằng dị giới đích đấu khí tại phát triển đáo đỉnh lúc ra sao loại cảnh địa không? mời xem đấu phá thương khung...!",
      "img": "https://www.nae.vn/ttv/ttv/public/images/story/92f20f5a2cbb0e5db13d74f5388ec810b5b0b9b63bacd720f07963fc5185fd5b.jpg",
      "title": "[Dịch] Đấu Phá Thương Khung  - 斗破苍穹",
      "author": "Thiên Tằm Thổ Đậu",
      "genre": "Đã hoàn thành",
      "source": "Danh sách chương (1639 chương)",
      "status": "Huyền Huyễn",
      "story_id": "5947"
    },
    {
      "_id": "5d558c4e90fbc320291c5fee",
      "url": "https://truyen.tangthuvien.vn/doc-truyen/dichnu-nhan-sau-lung-de-quoc-thien-tai-tieu-vuong-phi-suu-tam",
      "description": " Nữ Nhân Sau Lưng Đế Quốc Thiên Tài Tiểu Vương Phi là\n\ntác phẩm thần tiên đầy ma mị. Khi tác giả Vệ Sơ Lãng đã khéo léo diễn tả những\n\ntình tiết độc thoại nội tâm lồng ghép vào trong chính lời thoai của nhân vật\n\ngiúp câu chuyện trở nên cao trào đầy hấp dẫn.Truyện xuyên không này kể về hắn lúc còn 6 tuổi, đôi mắt đa tình giống\n\nnhư bậc thần tiên không nhiễm bụi bẩn, khuôn mặt luôn nở nụ cười xấu xa, lại giống\n\nnhư tên ác ma tới từ địa ngục. “Tiểu nha đầu, ta đã hôn nàng, nàng đã là người\n\ncủa ta, lớn lên phải gả cho ta!”. Tô Mạt trừng mắt “Ngươi thích “cỏ non” nhưng\n\nta không có hứng thú với “trâu già” !” Lời lẽ nàng thốt lên như những mũi tên\n\nđâm vào tận trong tim hắn, ấy vậy chính cái tính ngang ngược này của nàng lại\n\nkhiến hắn khó lòng để nàng thoát thân. Bởi lẽ, chỉ số thông minh của nàng vượt\n\n160 cơ mà. Ta đã xuyên không tới đây thì phải cố gắng làm chủ\n\ncuộc đời mình, sao có thể để người khác chi phối một cách dễ dàng? Nàng vốn\n\nxinh đẹp, có trí tuệ chứ không phải bình hoa di động, điều đó khiến không riêng\n\nta mà bất cứ chàng trai nào cũng muốn sở hữu nàng. Nam tử chỉ có thể phục tùng\n\nnàng, đừng nghĩ đến việc chinh phục nàng, huống chi lại nuôi lòng sở hữu nàng.\n\nTa biết rằng, từ giây phút khi xuyên không đến thế giới này, từ giây phút mà\n\nđôi mắt ta toàn hình bóng nàng in đậm, ta biết nàng thuộc về ta, chí ít là kiếp\n\nnày nàng sẽ thuộc về ta.Luôn luôn có những tình tiết bất ngờ được xuất hiện ở\n\nnhững chương tiếp theo của truyện. Đến với đọc truyện mới nhất để tìm hiểu rõ\n\nhơn về hắn và đi theo lối chân nàng để khám phá những khung trời bí ẩn thú vị.\n\nBên cạnh đó, Ngự Hỏa Mỹ Nương Tử và Thần Tiên Cũng Có Giang Hồ sẽ là những tác\n\nphẩm đáng để người đọc chiêm nghiệm và khám phá.",
      "img": "https://www.nae.vn/ttv/ttv/public/images/story/.jpg",
      "title": "[Dịch]Nữ Nhân Sau Lưng Đế Quốc Thiên Tài Tiểu Vương Phi - Sưu tầm",
      "author": "Vệ Sơ Lãng",
      "genre": "Đang ra",
      "source": "Danh sách chương (2413 chương)",
      "status": "Huyền Huyễn",
      "story_id": "11876"
    },
    {
      "_id": "5d558c4f90fbc320291c5fef",
      "url": "https://truyen.tangthuvien.vn/doc-truyen/tram-tien",
      "description": " Kiếp trước, Dương Thần giúp mọi người làm điều tốt, lại bị ức hiếp suốt đời.\n\r\n\n\r\nSống lại, Dương Thần tuyển chọn trở thành đao phủ, dưới Quỷ Đầu đao đoạn ân oán, trên Trảm Tiên đài chém hết thương sinh linh.\n\r\n\n\r\nNhân giới trảm nhân!\n\r\n\n\r\nYêu giới trảm yêu!\n\r\n\n\r\nMa giới trảm ma!\n\r\n\n\r\nTiên giới trảm tiên!",
      "img": "https://www.nae.vn/ttv/ttv/public/images/story/2340.jpg",
      "title": "Trảm Tiên  - 斩仙",
      "author": "Nhâm Oán",
      "genre": "Đã hoàn thành",
      "source": "Danh sách chương (2512 chương)",
      "status": "Tiên Hiệp",
      "story_id": "2340"
    },
    {
      "_id": "5d558c5190fbc320291c5ff0",
      "url": "https://truyen.tangthuvien.vn/doc-truyen/cau-ma",
      "description": " Đã thế nhân đều xưng ta là ma, tắc thì dứt khoát, từ nay về sau ta Tô Minh, tựu là ma!",
      "img": "https://www.nae.vn/ttv/ttv/public/images/story/add43985debb86f5f1529598835feb336eca007728f6c7ecebc3be8831e6392b.jpg",
      "title": "Cầu Ma  - 求魔",
      "author": "Nhĩ Căn",
      "genre": "Đã hoàn thành",
      "source": "Danh sách chương (1538 chương)",
      "status": "Tiên Hiệp",
      "story_id": "2668"
    },
    {
      "_id": "5d558c5290fbc320291c5ff1",
      "url": "https://truyen.tangthuvien.vn/doc-truyen/dichtong-giam-doc-xin-anh-nhe-mot-chut%21%21%21-suu-tam",
      "description": " Tổng Giám Đốc, Xin Anh Nhẹ Một Chút!!! xoay quanh câu chuyện một cô gái trẻ làm ở bộ phận quan hệ giao tiếp, nhưng lại bị quản lý của mình âm thầm sắp đặt dâng tặng cho vị tổng giám đốc cấp\n\ncao trẻ tuổi anh tuấn của mình. Cô bị người đàn ông như thể cầm thú này ‘hành hạ’ đến mức không còn nguyên vẹn, trở thành thư ký kiêm tình nhân của tổng giám đốc.Dần dà cô rơi vào tình yêu của anh mà không biết đâu là thật giả, cô quên mất thân phận mình tưởng chừng sẽ thành bà Tổng giám đốc. Trước hôn lễ một ngày, cô bị vướng án tội phạm thương mại.Trong chớp mắt, cô bị gia đình vứt bỏ, hai bàn tay trắng. Vào tù hai năm, cô mòn mỏi mong chờ anh từng ngày từng đêm. Đến khi ra tù lại nghe được tin anh sắp kết hôn. Thì ra tất cả đều là anh toan tính trả thủ cô thay cho người phụ nữ anh yêu. Không bao giờ có cái định nghĩa tình yêu giữa 2 người. Cứ tưởng rằng cả hai xem nhau như người dưng nước lã, nào ngờ anh lại biết được khi cô ngồi tù đã sinh ra đứa con của anhCùng theo dõi truyện tình đầy oan trái này nhé!",
      "img": "https://www.nae.vn/ttv/ttv/public/images/story/.jpg",
      "title": "[Dịch]Tổng Giám Đốc Xin Anh Nhẹ Một Chút!!!- Sưu tầm",
      "author": "Quai Quai Băng",
      "genre": "Đã hoàn thành",
      "source": "Danh sách chương (274 chương)",
      "status": "Đô Thị",
      "story_id": "6346"
    },
    {
      "_id": "5d558c5390fbc320291c5ff2",
      "url": "https://truyen.tangthuvien.vn/doc-truyen/su-thuong-de-nhat-to-su-gia",
      "description": " Xuyên qua rồi, cũng có một cái hệ thống, nhưng Lâm Phong áp lực lớn như núi.\n\r\n\n\r\nHệ thống nhiệm vụ chính tuyến: Lâm Phong khai sơn lập phái, thành lập trong lịch sử đệ nhất đại tông môn, Lâm Phong bản thân trở thành đệ nhất tổ sư.\n\r\n\n\r\nLiền vì trở thành trong lịch sử đệ nhất tổ sư gia, Lâm Phong bắt đầu phấn đấu.\n\r\n\n\r\n\"Ngươi gọi Thạch Thiên Hạo? Trời sinh chí tôn, lại bị tộc huynh mưu đoạt, hiện tại bị cha đẻ gởi nuôi ở một cái sơn thôn nhỏ bên trong? Đến đến đến, cùng sư phụ đi, chúng ta để những người kia biết một thoáng, ghi nợ công đạo, nhất định phải trả!\"\n\r\n\n\r\n\"Ngươi gọi Tiêu Diễm? Ngày xưa thiên tài, hiện tại vô dụng, vị hôn thê của ngươi trả lại môn làm mất mặt từ hôn? Đến đến đến, cùng sư phụ đi, chúng ta để nha đầu kia biết một thoáng, cái gì gọi là chớ khinh thiếu niên nghèo!\"\n\r\n\n\r\n\"Ngươi gọi Chu Dịch? Hầu phủ con thứ, bị phụ thân áp chế, mẫu thân là ngày xưa thánh nữ lại bị người hại chết? Đến đến đến, cùng sư phụ đi, chúng ta để cha ngươi biết một thoáng, cái gì gọi là trời đất bao la, nắm đấm tối... Không đúng, là đạo lý to lớn nhất!\"",
      "img": "https://www.nae.vn/ttv/ttv/public/images/story/61333885a85e7af4a6e5d60dca40d0bc90da68b1a319fe343d19b32f077f3b18.jpg",
      "title": "Sử Thượng Đệ Nhất Tổ Sư Gia  - 史上第一祖师爷",
      "author": "Bát Nguyệt Phi Ưng",
      "genre": "Đã hoàn thành",
      "source": "Danh sách chương (1480 chương)",
      "status": "Huyền Huyễn",
      "story_id": "2174"
    },
    {
      "_id": "5d558c5490fbc320291c5ff3",
      "url": "https://truyen.tangthuvien.vn/doc-truyen/tinh-chien-phong-bao",
      "description": " Trường quân đội khảo thi tới gần, bậc gen 28 bị trực tiếp hủy bỏ tư cách khảo thi.\n\r\n\n\r\nThay bằng hữu đưa thư tình, kết quả lại rớt xuống trong hồ, danh tiếng tự tử lan truyền nhanh chóng.\n\r\n\n\r\nVương Tranh đồng học lần thứ nhất thu được lễ vật, lại như là tiến nhập luyện ngục...\n\r\n\n\r\nNhưng mà, lúc hết thảy chấm dứt, Vương đồng học đã bắt đầu cuộc sống đại học hạnh phúc!\n\r\n\n\r\nNhiệt huyết vĩnh hằng, đây là phong bạo khúc quân hành, đây là hung mãnh nhất nhiệt huyết nhất cơ giáp triều dâng!",
      "img": "https://www.nae.vn/ttv/ttv/public/images/story/8c13a9d09e35d46dd2979a3ec8e8680fdcf04a3bc10df17392df731029523085.jpg",
      "title": "Tinh Chiến Phong Bạo  - 星战风暴",
      "author": "Khô Lâu Tinh Linh",
      "genre": "Đã hoàn thành",
      "source": "Danh sách chương (1636 chương)",
      "status": "Khoa Huyễn",
      "story_id": "31"
    },
    {
      "_id": "5d558c5690fbc320291c5ff4",
      "url": "https://truyen.tangthuvien.vn/doc-truyen/toan-chuc-phap-su",
      "description": " Tỉnh lại sau giấc ngủ, thế giới đại biến. \n\r\nQuen thuộc cao trung truyền thụ chính là phép thuật, nói cho mọi người muốn trở thành một tên xuất sắc Ma Pháp Sư. \n\r\nNgoài đô thị lại có ma vật yêu thú du đãng tập kích nhân loại, mắt nhìn chằm chằm. \n\r\nTôn trọng khoa học thế giới đã biến thành tôn trọng phép thuật, một mực như nhau có giáo viên lấy học cặn bã đối xử với mình, như nhau ánh mắt dị dạng bạn học, như nhau xã hội tầng dưới chót giãy dụa ba ba, như nhau muội muội không cùng huyết thống thuần mỹ nhưng không thể bước đi... \n\r\nBất quá, Mạc Phàm phát hiện tuyệt đại đa số người đều chỉ có thể chủ tu nhất hệ phép thuật, chính mình nhưng là toàn hệ toàn năng pháp sư!\n\r\n---------------\n\r\nPhân chia đẳng cấp:\n\r\n*Pháp sư: Học đồ → Sơ giai* Pháp sư → Trung giai Pháp sư → Cao giai Pháp sư → Siêu giai Pháp sư → Cấm chú Pháp sư.\n\r\n*Yêu ma: Yêu ma → cấp Nô bộc → cấp Chiến tướng → cấp Thống lĩnh → cấp Quân chủ → cấp Đế hoàng.\n\r\n*Khế ước thú: cấp Bảo bảo → kỳ Ấu niên → kỳ Trưởng thành → kỳ Thành thục → Đỉnh cao kỳ",
      "img": "https://www.nae.vn/ttv/ttv/public/images/story/534f529c0887e3fe02ba399b7d13633f9ae97fb38f617afb6f1bd06512c2c795.jpg",
      "title": "Toàn Chức Pháp Sư  - 全职法师",
      "author": "Loạn",
      "genre": "Đang ra",
      "source": "Danh sách chương (2955 chương)",
      "status": "Huyền Huyễn",
      "story_id": "405"
    }
  ]
}